..................
----------------------------------------------------------------------
Ran 18 tests in 0.405s

OK
Name             Stmts   Miss Branch BrPart  Cover   Missing
------------------------------------------------------------
Collatz.py          75      0     44      0   100%
TestCollatz.py      77      0      2      0   100%
------------------------------------------------------------
TOTAL              152      0     46      0   100%
