1 10 20
100 200 125
201 210 89
900 1000 174
37744 97676 351
84401 56620 351
1 99 119
2 5 8
90 98 119
78 78 36
34 521 144
123 876 179
345 74322 340
45 54 113
345 26 144
12 34 112
678 5 145
11 33 112
88 79 111
3 4 8
2 3 8
111111 111111 116
34 56 113
11 98 119
76 34 116
35 75 116
69 67 28
456 789 171
987 654 179
321 987 179
54 987 179
88 934 179
852 741 153
852 7418 262
7411 852 262
753 159 171
75 42 116
777 666 171
678 900 179
955 900 174
333 777 171
222 888 179
1 1 1
88 88 18
44 44 17
33 76 116
113 5678 238
9 1199 182
30 45 110
26 78 116
98753 23456 351
2738 4950 238
15 16 18
166 661 145
147 249 128
176 909 179
1666 1000 182
2000 2008 144
3000 3005 142
4009 3001 238
5005 4008 215
567 688 145
444 987 179
807 451 171
4347 97895 351
165 167 112
888 444 179
6780 12345 268
12345 65432 340
90765 98764 333
45678 12356 324
111 555 144
777 333 171
23456 2 279
90 69 116
69 420 144
420 9 144
5 8 17
1 9 20
345 1 144
65 222 125
99999 1 351
99999 10 351
58 11 113
65 78 116
2000 2022 144
630 2000 182
514 2015 182
6 9 20
4 20 21
204 96 125
94 23 116
528 87654 351
1000 6000 238
69420 9 340
5341 9999 262
100000 2 351
888 1380 182
763 19 171
345 21 144
21 1 21
7 67 113
100 2 119
