..................
----------------------------------------------------------------------
Ran 18 tests in 0.337s

OK
Name             Stmts   Miss Branch BrPart  Cover   Missing
------------------------------------------------------------
Collatz.py          29      0     10      0   100%
TestCollatz.py      81      0      2      0   100%
------------------------------------------------------------
TOTAL              110      0     12      0   100%
