1 1 1
500 1000 179
88888 99999 333
77777 33333 351
748 38492 324
74398 478 340
666 678 145
3829 839 238
4 78 116
8 289 128
8 3742 238
4 42489 324
37 2893 209
72 383 144
37847 7299 324
46 377 144
36 3729 238
7438 7493 164
48492 74983 340
1838 384 182
3729 38483 324
3637 28392 308
748 37239 324
87448 7383 351
7482 2 262
4682 2 238
274 678 145
6637 99877 351
77389 8 351
368 3783 238
3738 3838 176
777 7999 262
7388 7777 239
333 3444 217
388 777 171
37788 37462 306
1111 7777 262
83888 3863 351
9999 9993 180
66367 9999 340
2227 3467 217
555 5538 238
2739 74638 340
366 8338 262
7483 74823 340
74386 643 340
466 747 171
484 4883 238
473 487 142
2644 48394 324
66638 37849 340
77 44 116
66 33 113
77 33 116
99 3773 238
38739 777 324
3627 444 217
34239 4483 311
77 39 116
888 300 179
3838 8838 262
823 838 135
388 393 121
99 33 119
8383 9002 247
9383 9392 123
445 556 142
996 778 179
902 849 179
38498 94372 351
848 302 171
73 8389 262
3828 3829 57
84747 883 351
8328 6666 257
83838 38382 351
44558 399 324
392 833 171
383 943 179
4702 382 238
93293 9249 351
949 388 179
83293 488 351
888 939 174
3828 8888 262
8883 929 262
9929 83839 351
999 3929 238
94280 388 351
9328 3 262
9393 3 262
99942 94 351
83838 888 351
838 833 135
888 2999 217
8 9999 262
999 222 179
33432 939 308
839 93 171
329 6666 262
888 999 174
1679 8445 262
2090 15806 276
13782 22674 279
6044 24492 282
20360 33115 308
6150 48522 324
19831 45451 324
33016 57936 340
21897 88686 351
2430 53490 340
28952 74525 340
56100 87672 351
37817 91572 351
18172 126770 354
13440 100770 351
66896 85088 351
37519 85476 351
12726 103698 351
89585 101973 341
99580 150040 375
5145 181860 383
16786 219296 386
74313 130663 354
86616 195864 383
75575 222350 386
103584 259870 443
107028 156303 383
96964 151424 375
33031 201811 383
111030 188730 383
55986 261299 443
19872 254944 443
132858 172293 383
8908 173842 383
23275 230580 386
145800 233244 443
42217 283679 443
179360 228798 386
167466 244296 443
106880 301440 443
183844 361415 443
95130 378756 443
93439 429828 449
53328 300564 443
151605 300105 443
172362 315192 443
101990 270626 443
73200 343680 443
88837 303359 443
243150 328300 407
207876 501177 449
151476 422656 449
137217 422569 449
138780 382428 443
140690 283965 443
67872 291144 443
140220 560937 470
29290 485402 449
47790 366862 443
256140 532080 470
270474 592737 470
229648 499286 449
6048 495936 449
303936 542528 470
156195 633230 509
92796 411048 449
82812 379354 443
66572 675852 509
49749 555243 470
100590 363930 443
270226 548049 470
102888 429336 449
66357 703866 509
66822 426166 449
362175 571875 470
5548 751944 509
109494 391545 443
313950 490698 449
321846 615726 470
223200 548080 470
42768 643707 509
384416 747758 509
354576 739032 509
149688 791868 509
350370 440300 449
228072 645086 509
365661 771342 509
32824 843832 525
244127 513886 470
181620 501390 449
356174 838474 525
396520 864248 525
419244 771621 509
207740 611282 470
349600 758575 509
172896 783360 509
470741 853115 525
190218 823984 509
303633 929115 525
