....................
----------------------------------------------------------------------
Ran 20 tests in 0.076s

OK
Name             Stmts   Miss Branch BrPart  Cover   Missing
------------------------------------------------------------
Collatz.py          47      1     22      2    96%   66->78, 120
TestCollatz.py      83      0      2      0   100%
------------------------------------------------------------
TOTAL              130      1     24      2    98%
